Exploratory Data Analysis
…
Go ahead and add one the ggplot code to make the visualization.

dplyr - mutate()

Use mutate() to create NEW columns/variables within your data set.

babynames |> 
  mutate(percent = round(prop*100, 2)) |> 
  relocate(percent, .before = proportion)

# A tibble: 144,000 × 8
   name    sex       n  year percent proportion  rank   prop
   <chr>   <chr> <dbl> <dbl>   <dbl>      <dbl> <dbl>  <dbl>
 1 Linda   F     99693  1947    6.17     0.0562     1 0.0617
 2 Linda   F     96215  1948    6.23     0.0567     1 0.0623
 3 James   M     94761  1947    5.46     0.0518     1 0.0546
 4 Michael M     92777  1957    4.53     0.0430     1 0.0453
 5 Robert  M     91654  1947    5.28     0.0501     2 0.0528
 6 Linda   F     91017  1949    5.85     0.0532     1 0.0585
 7 Michael M     90693  1956    4.52     0.0429     1 0.0452
 8 Michael M     90614  1958    4.5      0.0427     1 0.0450
 9 James   M     88604  1948    5.32     0.0505     1 0.0532
10 Michael M     88563  1954    4.57     0.0434     1 0.0457
# ℹ 143,990 more rows

babynames |> 
  mutate(percent = round(prop*100, 2),
         nper = round(percent)) |> 
  relocate(percent:nper, .before = proportion)

# A tibble: 144,000 × 9
   name    sex       n  year percent  nper proportion  rank   prop
   <chr>   <chr> <dbl> <dbl>   <dbl> <dbl>      <dbl> <dbl>  <dbl>
 1 Linda   F     99693  1947    6.17     6     0.0562     1 0.0617
 2 Linda   F     96215  1948    6.23     6     0.0567     1 0.0623
 3 James   M     94761  1947    5.46     5     0.0518     1 0.0546
 4 Michael M     92777  1957    4.53     5     0.0430     1 0.0453
 5 Robert  M     91654  1947    5.28     5     0.0501     2 0.0528
 6 Linda   F     91017  1949    5.85     6     0.0532     1 0.0585
 7 Michael M     90693  1956    4.52     5     0.0429     1 0.0452
 8 Michael M     90614  1958    4.5      4     0.0427     1 0.0450
 9 James   M     88604  1948    5.32     5     0.0505     1 0.0532
10 Michael M     88563  1954    4.57     5     0.0434     1 0.0457
# ℹ 143,990 more rows

Your Turn 3

Fill in the blanks to: Rank each name within its year and sex.

(Hint: Be sure to remove each _ before running the code)

babynames |> 
  select(name, year, sex, prop) |> 
  group_by(year, sex) |> 
  mutate(rank = min_rank(desc(prop))) |> 
  arrange(year, sex, rank)

# A tibble: 144,000 × 5
# Groups:   year, sex [288]
   name       year sex     prop  rank
   <chr>     <dbl> <chr>  <dbl> <int>
 1 Mary       1880 F     0.0805     1
 2 Anna       1880 F     0.0297     2
 3 Emma       1880 F     0.0228     3
 4 Elizabeth  1880 F     0.0221     4
 5 Minnie     1880 F     0.0199     5
 6 Margaret   1880 F     0.0180     6
 7 Ida        1880 F     0.0168     7
 8 Alice      1880 F     0.0161     8
 9 Bertha     1880 F     0.0150     9
10 Sarah      1880 F     0.0147    10
# ℹ 143,990 more rows
…
